simulation/qsim/FPGAGraphics.msim.vcd
$comment
	File created using the following command:
		vcd file FPGAGraphics.msim.vcd -direction
$end
$date
	Thu Nov 30 13:59:50 2023
$end
$version
	ModelSim Version 10.5b
$end
$timescale
	1ps
$end

$scope module FPGAGraphics_vlg_vec_tst $end
$var reg 1 ! CLOCK_50 $end
$var reg 1 " rst $end
$var wire 1 # H_Cont [10] $end
$var wire 1 $ H_Cont [9] $end
$var wire 1 % H_Cont [8] $end
$var wire 1 & H_Cont [7] $end
$var wire 1 ' H_Cont [6] $end
$var wire 1 ( H_Cont [5] $end
$var wire 1 ) H_Cont [4] $end
$var wire 1 * H_Cont [3] $end
$var wire 1 + H_Cont [2] $end
$var wire 1 , H_Cont [1] $end
$var wire 1 - H_Cont [0] $end
$var wire 1 . LEDR [8] $end
$var wire 1 / LEDR [7] $end
$var wire 1 0 LEDR [6] $end
$var wire 1 1 LEDR [5] $end
$var wire 1 2 LEDR [4] $end
$var wire 1 3 LEDR [3] $end
$var wire 1 4 LEDR [2] $end
$var wire 1 5 LEDR [1] $end
$var wire 1 6 LEDR [0] $end
$var wire 1 7 VGA_B [7] $end
$var wire 1 8 VGA_B [6] $end
$var wire 1 9 VGA_B [5] $end
$var wire 1 : VGA_B [4] $end
$var wire 1 ; VGA_B [3] $end
$var wire 1 < VGA_B [2] $end
$var wire 1 = VGA_B [1] $end
$var wire 1 > VGA_B [0] $end
$var wire 1 ? VGA_BLANK_N $end
$var wire 1 @ VGA_CLK $end
$var wire 1 A VGA_G [7] $end
$var wire 1 B VGA_G [6] $end
$var wire 1 C VGA_G [5] $end
$var wire 1 D VGA_G [4] $end
$var wire 1 E VGA_G [3] $end
$var wire 1 F VGA_G [2] $end
$var wire 1 G VGA_G [1] $end
$var wire 1 H VGA_G [0] $end
$var wire 1 I VGA_HS $end
$var wire 1 J VGA_R [7] $end
$var wire 1 K VGA_R [6] $end
$var wire 1 L VGA_R [5] $end
$var wire 1 M VGA_R [4] $end
$var wire 1 N VGA_R [3] $end
$var wire 1 O VGA_R [2] $end
$var wire 1 P VGA_R [1] $end
$var wire 1 Q VGA_R [0] $end
$var wire 1 R VGA_SYNC_N $end
$var wire 1 S VGA_VS $end
$var wire 1 T V_Cont [10] $end
$var wire 1 U V_Cont [9] $end
$var wire 1 V V_Cont [8] $end
$var wire 1 W V_Cont [7] $end
$var wire 1 X V_Cont [6] $end
$var wire 1 Y V_Cont [5] $end
$var wire 1 Z V_Cont [4] $end
$var wire 1 [ V_Cont [3] $end
$var wire 1 \ V_Cont [2] $end
$var wire 1 ] V_Cont [1] $end
$var wire 1 ^ V_Cont [0] $end

$scope module i1 $end
$var wire 1 _ gnd $end
$var wire 1 ` vcc $end
$var wire 1 a unknown $end
$var tri1 1 b devclrn $end
$var tri1 1 c devpor $end
$var tri1 1 d devoe $end
$var wire 1 e rst~input_o $end
$var wire 1 f ~QUARTUS_CREATED_GND~I_combout $end
$var wire 1 g CLOCK_50~input_o $end
$var wire 1 h clk_pix_25~0_combout $end
$var wire 1 i clk_pix_25~q $end
$var wire 1 j vga_inst|H_Cont[7]~DUPLICATE_q $end
$var wire 1 k vga_inst|Add0~25_sumout $end
$var wire 1 l vga_inst|Add0~26 $end
$var wire 1 m vga_inst|Add0~29_sumout $end
$var wire 1 n vga_inst|Add0~30 $end
$var wire 1 o vga_inst|Add0~33_sumout $end
$var wire 1 p vga_inst|H_Cont[2]~DUPLICATE_q $end
$var wire 1 q vga_inst|Add0~34 $end
$var wire 1 r vga_inst|Add0~37_sumout $end
$var wire 1 s vga_inst|Add0~38 $end
$var wire 1 t vga_inst|Add0~41_sumout $end
$var wire 1 u vga_inst|Add0~42 $end
$var wire 1 v vga_inst|Add0~9_sumout $end
$var wire 1 w vga_inst|H_Cont[5]~DUPLICATE_q $end
$var wire 1 x vga_inst|Add0~10 $end
$var wire 1 y vga_inst|Add0~6 $end
$var wire 1 z vga_inst|Add0~1_sumout $end
$var wire 1 { vga_inst|Add0~2 $end
$var wire 1 | vga_inst|Add0~13_sumout $end
$var wire 1 } vga_inst|H_Cont[8]~DUPLICATE_q $end
$var wire 1 ~ vga_inst|Add0~14 $end
$var wire 1 !! vga_inst|Add0~17_sumout $end
$var wire 1 "! vga_inst|Add0~18 $end
$var wire 1 #! vga_inst|Add0~21_sumout $end
$var wire 1 $! vga_inst|LessThan2~0_combout $end
$var wire 1 %! vga_inst|Add0~5_sumout $end
$var wire 1 &! vga_inst|H_Cont[6]~DUPLICATE_q $end
$var wire 1 '! vga_inst|VGA_BLANK_N~2_combout $end
$var wire 1 (! vga_inst|H_Cont[0]~DUPLICATE_q $end
$var wire 1 )! vga_inst|Equal0~0_combout $end
$var wire 1 *! vga_inst|VGA_HS~0_combout $end
$var wire 1 +! vga_inst|VGA_HS~q $end
$var wire 1 ,! vga_inst|Add1~13_sumout $end
$var wire 1 -! vga_inst|V_Cont[0]~DUPLICATE_q $end
$var wire 1 .! vga_inst|Add1~14 $end
$var wire 1 /! vga_inst|Add1~17_sumout $end
$var wire 1 0! vga_inst|V_Cont[1]~DUPLICATE_q $end
$var wire 1 1! vga_inst|Add1~18 $end
$var wire 1 2! vga_inst|Add1~9_sumout $end
$var wire 1 3! vga_inst|V_Cont[2]~DUPLICATE_q $end
$var wire 1 4! vga_inst|Add1~10 $end
$var wire 1 5! vga_inst|Add1~5_sumout $end
$var wire 1 6! vga_inst|V_Cont[3]~DUPLICATE_q $end
$var wire 1 7! vga_inst|Add1~6 $end
$var wire 1 8! vga_inst|Add1~1_sumout $end
$var wire 1 9! vga_inst|V_Cont[4]~DUPLICATE_q $end
$var wire 1 :! vga_inst|Add1~2 $end
$var wire 1 ;! vga_inst|Add1~41_sumout $end
$var wire 1 <! vga_inst|Add1~42 $end
$var wire 1 =! vga_inst|Add1~38 $end
$var wire 1 >! vga_inst|Add1~33_sumout $end
$var wire 1 ?! vga_inst|V_Cont[7]~DUPLICATE_q $end
$var wire 1 @! vga_inst|Add1~34 $end
$var wire 1 A! vga_inst|Add1~29_sumout $end
$var wire 1 B! vga_inst|Add1~30 $end
$var wire 1 C! vga_inst|Add1~21_sumout $end
$var wire 1 D! vga_inst|V_Cont[9]~DUPLICATE_q $end
$var wire 1 E! vga_inst|Add1~22 $end
$var wire 1 F! vga_inst|Add1~25_sumout $end
$var wire 1 G! vga_inst|V_Cont[10]~DUPLICATE_q $end
$var wire 1 H! vga_inst|LessThan3~1_combout $end
$var wire 1 I! vga_inst|LessThan3~0_combout $end
$var wire 1 J! vga_inst|Add1~37_sumout $end
$var wire 1 K! vga_inst|V_Cont[6]~DUPLICATE_q $end
$var wire 1 L! vga_inst|LessThan1~1_combout $end
$var wire 1 M! vga_inst|H_Cont[9]~DUPLICATE_q $end
$var wire 1 N! vga_inst|VGA_BLANK_N~0_combout $end
$var wire 1 O! vga_inst|LessThan1~0_combout $end
$var wire 1 P! vga_inst|VGA_BLANK_N~1_combout $end
$var wire 1 Q! vga_inst|VGA_VS~0_combout $end
$var wire 1 R! vga_inst|VGA_VS~1_combout $end
$var wire 1 S! vga_inst|VGA_VS~q $end
$var wire 1 T! vga_inst|display_r[0]~0_combout $end
$var wire 1 U! vga_inst|display_r[1]~1_combout $end
$var wire 1 V! vga_inst|V_Cont[8]~DUPLICATE_q $end
$var wire 1 W! vga_inst|display_r[2]~2_combout $end
$var wire 1 X! vga_inst|display_r[3]~3_combout $end
$var wire 1 Y! vga_inst|display_g[0]~0_combout $end
$var wire 1 Z! vga_inst|display_g[1]~1_combout $end
$var wire 1 [! vga_inst|display_g[2]~2_combout $end
$var wire 1 \! vga_inst|display_g[3]~3_combout $end
$var wire 1 ]! vga_inst|always2~0_combout $end
$var wire 1 ^! vga_inst|display_b[0]~0_combout $end
$var wire 1 _! vga_inst|display_b[2]~1_combout $end
$var wire 1 `! CLOCK_50~inputCLKENA0_outclk $end
$var wire 1 a! LEDR[0]~0_combout $end
$var wire 1 b! LEDR[0]~reg0_q $end
$var wire 1 c! LEDR[1]~reg0feeder_combout $end
$var wire 1 d! LEDR[1]~reg0_q $end
$var wire 1 e! LEDR[2]~reg0_q $end
$var wire 1 f! vga_inst|H_Cont[4]~DUPLICATE_q $end
$var wire 1 g! vga_inst|VGA_B [7] $end
$var wire 1 h! vga_inst|VGA_B [6] $end
$var wire 1 i! vga_inst|VGA_B [5] $end
$var wire 1 j! vga_inst|VGA_B [4] $end
$var wire 1 k! vga_inst|VGA_B [3] $end
$var wire 1 l! vga_inst|VGA_B [2] $end
$var wire 1 m! vga_inst|VGA_B [1] $end
$var wire 1 n! vga_inst|VGA_B [0] $end
$var wire 1 o! vga_inst|VGA_G [7] $end
$var wire 1 p! vga_inst|VGA_G [6] $end
$var wire 1 q! vga_inst|VGA_G [5] $end
$var wire 1 r! vga_inst|VGA_G [4] $end
$var wire 1 s! vga_inst|VGA_G [3] $end
$var wire 1 t! vga_inst|VGA_G [2] $end
$var wire 1 u! vga_inst|VGA_G [1] $end
$var wire 1 v! vga_inst|VGA_G [0] $end
$var wire 1 w! vga_inst|VGA_R [7] $end
$var wire 1 x! vga_inst|VGA_R [6] $end
$var wire 1 y! vga_inst|VGA_R [5] $end
$var wire 1 z! vga_inst|VGA_R [4] $end
$var wire 1 {! vga_inst|VGA_R [3] $end
$var wire 1 |! vga_inst|VGA_R [2] $end
$var wire 1 }! vga_inst|VGA_R [1] $end
$var wire 1 ~! vga_inst|VGA_R [0] $end
$var wire 1 !" vga_inst|H_Cont [10] $end
$var wire 1 "" vga_inst|H_Cont [9] $end
$var wire 1 #" vga_inst|H_Cont [8] $end
$var wire 1 $" vga_inst|H_Cont [7] $end
$var wire 1 %" vga_inst|H_Cont [6] $end
$var wire 1 &" vga_inst|H_Cont [5] $end
$var wire 1 '" vga_inst|H_Cont [4] $end
$var wire 1 (" vga_inst|H_Cont [3] $end
$var wire 1 )" vga_inst|H_Cont [2] $end
$var wire 1 *" vga_inst|H_Cont [1] $end
$var wire 1 +" vga_inst|H_Cont [0] $end
$var wire 1 ," vga_inst|V_Cont [10] $end
$var wire 1 -" vga_inst|V_Cont [9] $end
$var wire 1 ." vga_inst|V_Cont [8] $end
$var wire 1 /" vga_inst|V_Cont [7] $end
$var wire 1 0" vga_inst|V_Cont [6] $end
$var wire 1 1" vga_inst|V_Cont [5] $end
$var wire 1 2" vga_inst|V_Cont [4] $end
$var wire 1 3" vga_inst|V_Cont [3] $end
$var wire 1 4" vga_inst|V_Cont [2] $end
$var wire 1 5" vga_inst|V_Cont [1] $end
$var wire 1 6" vga_inst|V_Cont [0] $end
$upscope $end
$upscope $end
$enddefinitions $end
#0
$dumpvars
0!
x"
0-
0,
0+
0*
0)
0(
0'
0&
0%
0$
0#
06
05
04
03
02
01
00
0/
0.
0>
0=
0<
0;
0:
09
08
07
0?
0@
0H
0G
0F
0E
0D
0C
0B
0A
0I
0Q
0P
0O
0N
0M
0L
0K
0J
1R
0S
0^
0]
0\
0[
0Z
0Y
0X
0W
0V
0U
0T
0_
1`
xa
1b
1c
1d
xe
0f
0g
1h
0i
0j
1k
0l
0m
0n
0o
0p
0q
0r
0s
0t
0u
0v
0w
0x
0y
0z
0{
0|
0}
0~
0!!
0"!
0#!
0$!
0%!
0&!
1'!
0(!
0)!
0*!
0+!
1,!
0-!
0.!
0/!
00!
01!
02!
03!
04!
05!
06!
07!
08!
09!
0:!
0;!
0<!
0=!
0>!
0?!
0@!
0A!
0B!
0C!
0D!
0E!
0F!
0G!
1H!
0I!
0J!
0K!
1L!
0M!
1N!
1O!
1P!
0Q!
0R!
0S!
0T!
0U!
0V!
0W!
0X!
0Y!
0Z!
0[!
0\!
1]!
0^!
0_!
0`!
0a!
0b!
0c!
0d!
0e!
0f!
0n!
0m!
0l!
zk!
zj!
zi!
zh!
zg!
0v!
0u!
0t!
0s!
zr!
zq!
zp!
zo!
0~!
0}!
0|!
0{!
zz!
zy!
zx!
zw!
0+"
0*"
0)"
0("
0'"
0&"
0%"
0$"
0#"
0""
0!"
06"
05"
04"
03"
02"
01"
00"
0/"
0."
0-"
0,"
$end
#20000
1!
1g
1`!
1i
1@
0h
1+"
1(!
1-
1l
0k
1m
#40000
0!
0g
0`!
#60000
1!
1g
1`!
0i
0@
1h
#80000
0!
0g
0`!
#100000
1!
1g
1`!
1i
1@
0h
0+"
0(!
1*"
1,
0-
0l
1n
1k
0m
0n
1m
1o
0o
#120000
0!
0g
0`!
#140000
1!
1g
1`!
0i
0@
1h
#160000
0!
0g
0`!
#180000
1!
1g
1`!
1i
1@
0h
1+"
1(!
1-
1l
0k
1n
0m
1o
#200000
0!
0g
0`!
#220000
1!
1g
1`!
0i
0@
1h
#240000
0!
0g
0`!
#260000
1!
1g
1`!
1i
1@
0h
1p
0+"
1)"
0(!
0*"
0,
0-
1+
0l
1q
0n
1k
0o
1m
0q
0m
1r
1o
0r
#280000
0!
0g
0`!
#300000
1!
1g
1`!
0i
0@
1h
#320000
0!
0g
0`!
#340000
1!
1g
1`!
1i
1@
0h
1+"
1(!
1-
1l
0k
1m
#360000
0!
0g
0`!
#380000
1!
1g
1`!
0i
0@
1h
#400000
0!
0g
0`!
#420000
1!
1g
1`!
1i
1@
0h
0+"
0(!
1*"
1,
0-
0l
1n
1k
0m
0n
1q
1m
0o
0q
1o
1r
0r
#440000
0!
0g
0`!
#460000
1!
1g
1`!
0i
0@
1h
#480000
0!
0g
0`!
#500000
1!
1g
1`!
1i
1@
0h
1+"
1(!
1-
1l
0k
1n
0m
1q
0o
1r
#520000
0!
0g
0`!
#540000
1!
1g
1`!
0i
0@
1h
#560000
0!
0g
0`!
#580000
1!
1g
1`!
1i
1@
0h
0p
0+"
0)"
0(!
1("
0*"
0,
1*
0-
0+
0l
0q
0n
1s
1k
1o
1m
0r
0s
0m
1r
0o
1t
0t
#600000
0!
0g
0`!
#620000
1!
1g
1`!
0i
0@
1h
#640000
0!
0g
0`!
#660000
1!
1g
1`!
1i
1@
0h
1+"
1(!
1-
1l
0k
1m
#680000
0!
0g
0`!
#700000
1!
1g
1`!
0i
0@
1h
#720000
0!
0g
0`!
#740000
1!
1g
1`!
1i
1@
0h
0+"
0(!
1*"
1,
0-
0l
1n
1k
0m
0n
1m
1o
0o
#760000
0!
0g
0`!
#780000
1!
1g
1`!
0i
0@
1h
#800000
0!
0g
0`!
#820000
1!
1g
1`!
1i
1@
0h
1+"
1(!
1-
1l
0k
1n
0m
1o
#840000
0!
0g
0`!
#860000
1!
1g
1`!
0i
0@
1h
#880000
0!
0g
0`!
#900000
1!
1g
1`!
1i
1@
0h
1p
0+"
1)"
0(!
0*"
0,
0-
1+
0l
1q
0n
1k
0o
1m
1s
0q
0m
0r
1o
0s
1t
1r
0t
#920000
0!
0g
0`!
#940000
1!
1g
1`!
0i
0@
1h
#960000
0!
0g
0`!
#980000
1!
1g
1`!
1i
1@
0h
1+"
1(!
1-
1l
0k
1m
#1000000
0!
0g
0`!
#1020000
1!
1g
1`!
0i
0@
1h
#1040000
0!
0g
0`!
#1060000
1!
1g
1`!
1i
1@
0h
0+"
0(!
1*"
1,
0-
0l
1n
1k
0m
0n
1q
1m
0o
0q
1s
1o
0r
0s
1r
1t
0t
#1080000
0!
0g
0`!
#1100000
1!
1g
1`!
0i
0@
1h
#1120000
0!
0g
0`!
#1140000
1!
1g
1`!
1i
1@
0h
1+"
1(!
1-
1l
1)!
0k
1n
0m
1q
0o
1s
0r
1t
#1160000
0!
0g
0`!
#1180000
1!
1g
1`!
0i
0@
1h
#1200000
0!
0g
0`!
#1220000
1!
1g
1`!
1i
1@
0h
1'"
0p
0+"
1f!
0)"
0(!
0("
0*"
0,
0*
0-
0+
1)
0l
0q
0)!
1u
0n
0s
1k
1o
1T!
0t
1m
1r
0u
0m
0r
1v
0o
1t
0v
#1240000
0!
0g
0`!
#1260000
1!
1g
1`!
0i
0@
1h
#1280000
0!
0g
0`!
#1300000
1!
1g
1`!
1i
1@
0h
1+"
1(!
1-
1l
0k
1m
#1320000
0!
0g
0`!
#1340000
1!
1g
1`!
0i
0@
1h
#1360000
0!
0g
0`!
#1380000
1!
1g
1`!
1i
1@
0h
0+"
0(!
1*"
1,
0-
0l
1n
1k
0m
0n
1m
1o
0o
#1400000
0!
0g
0`!
#1420000
1!
1g
1`!
0i
0@
1h
#1440000
0!
0g
0`!
#1460000
1!
1g
1`!
1i
1@
0h
1+"
1(!
1-
1l
0k
1n
0m
1o
#1480000
0!
0g
0`!
#1500000
1!
1g
1`!
0i
0@
1h
#1520000
0!
0g
0`!
#1540000
1!
1g
1`!
1i
1@
0h
1p
0+"
1)"
0(!
0*"
0,
0-
1+
0l
1q
0n
1k
0o
1m
0q
0m
1r
1o
0r
#1560000
0!
0g
0`!
#1580000
1!
1g
1`!
0i
0@
1h
#1600000
0!
0g
0`!
#1620000
1!
1g
1`!
1i
1@
0h
1+"
1(!
1-
1l
0k
1m
#1640000
0!
0g
0`!
#1660000
1!
1g
1`!
0i
0@
1h
#1680000
0!
0g
0`!
#1700000
1!
1g
1`!
1i
1@
0h
0+"
0(!
1*"
1,
0-
0l
1n
1k
0m
0n
1q
1m
0o
0q
1o
1r
0r
#1720000
0!
0g
0`!
#1740000
1!
1g
1`!
0i
0@
1h
#1760000
0!
0g
0`!
#1780000
1!
1g
1`!
1i
1@
0h
1+"
1(!
1-
1l
0k
1n
0m
1q
0o
1r
#1800000
0!
0g
0`!
#1820000
1!
1g
1`!
0i
0@
1h
#1840000
0!
0g
0`!
#1860000
1!
1g
1`!
1i
1@
0h
0p
0+"
0)"
0(!
1("
0*"
0,
1*
0-
0+
0l
0q
0n
1s
1k
1o
1m
0r
0s
1u
0m
1r
0o
0t
0u
1t
1v
0v
#1880000
0!
0g
0`!
#1900000
1!
1g
1`!
0i
0@
1h
#1920000
0!
0g
0`!
#1940000
1!
1g
1`!
1i
1@
0h
1+"
1(!
1-
1l
0k
1m
#1960000
0!
0g
0`!
#1980000
1!
1g
1`!
0i
0@
1h
#2000000
0!
0g
0`!
#2020000
1!
1g
1`!
1i
1@
0h
0+"
0(!
1*"
1,
0-
0l
1n
1k
0m
0n
1m
1o
0o
#2040000
0!
0g
0`!
#2060000
1!
1g
1`!
0i
0@
1h
#2080000
0!
0g
0`!
#2100000
1!
1g
1`!
1i
1@
0h
1+"
1(!
1-
1l
0k
1n
0m
1o
#2120000
0!
0g
0`!
#2140000
1!
1g
1`!
0i
0@
1h
#2160000
0!
0g
0`!
#2180000
1!
1g
1`!
1i
1@
0h
1p
0+"
1)"
0(!
0*"
0,
0-
1+
0l
1q
0n
1k
0o
1m
1s
0q
0m
0r
1o
1u
0s
0t
1r
0u
1v
1t
0v
#2200000
0!
0g
0`!
#2220000
1!
1g
1`!
0i
0@
1h
#2240000
0!
0g
0`!
#2260000
1!
1g
1`!
1i
1@
0h
1+"
1(!
1-
1l
0k
1m
#2280000
0!
0g
0`!
#2300000
1!
1g
1`!
0i
0@
1h
#2320000
0!
0g
0`!
#2340000
1!
1g
1`!
1i
1@
0h
0+"
0(!
1*"
1,
0-
0l
1n
1k
0m
0n
1q
1m
0o
0q
1s
1o
0r
0s
1u
1r
0t
0u
1t
1v
0v
#2360000
0!
0g
0`!
#2380000
1!
1g
1`!
0i
0@
1h
#2400000
0!
0g
0`!
#2420000
1!
1g
1`!
1i
1@
0h
1+"
1(!
1-
1l
0k
1n
0m
1q
0o
1s
0r
1u
0t
1v
#2440000
0!
0g
0`!
#2460000
1!
1g
1`!
0i
0@
1h
#2480000
0!
0g
0`!
#2500000
1!
1g
1`!
1i
1@
0h
1w
0'"
0p
0+"
0f!
1&"
0)"
0(!
0("
0*"
0,
0*
0-
0+
1(
0)
0l
0q
0u
1x
0n
0s
1k
1o
0T!
1t
0v
1m
1r
1U!
0x
0m
0r
1v
1%!
0o
0t
0%!
#2520000
0!
0g
0`!
#2540000
1!
1g
1`!
0i
0@
1h
#2560000
0!
0g
0`!
#2580000
1!
1g
1`!
1i
1@
0h
1+"
1(!
1-
1l
0k
1m
#2600000
0!
0g
0`!
#2620000
1!
1g
1`!
0i
0@
1h
#2640000
0!
0g
0`!
#2660000
1!
1g
1`!
1i
1@
0h
0+"
0(!
1*"
1,
0-
0l
1n
1k
0m
0n
1m
1o
0o
#2680000
0!
0g
0`!
#2700000
1!
1g
1`!
0i
0@
1h
#2720000
0!
0g
0`!
#2740000
1!
1g
1`!
1i
1@
0h
1+"
1(!
1-
1l
0k
1n
0m
1o
#2760000
0!
0g
0`!
#2780000
1!
1g
1`!
0i
0@
1h
#2800000
0!
0g
0`!
#2820000
1!
1g
1`!
1i
1@
0h
1p
0+"
1)"
0(!
0*"
0,
0-
1+
0l
1q
0n
1k
0o
1m
0q
0m
1r
1o
0r
#2840000
0!
0g
0`!
#2860000
1!
1g
1`!
0i
0@
1h
#2880000
0!
0g
0`!
#2900000
1!
1g
1`!
1i
1@
0h
1+"
1(!
1-
1l
0k
1m
#2920000
0!
0g
0`!
#2940000
1!
1g
1`!
0i
0@
1h
#2960000
0!
0g
0`!
#2980000
1!
1g
1`!
1i
1@
0h
0+"
0(!
1*"
1,
0-
0l
1n
1k
0m
0n
1q
1m
0o
0q
1o
1r
0r
#3000000
0!
0g
0`!
#3020000
1!
1g
1`!
0i
0@
1h
#3040000
0!
0g
0`!
#3060000
1!
1g
1`!
1i
1@
0h
1+"
1(!
1-
1l
0k
1n
0m
1q
0o
1r
#3080000
0!
0g
0`!
#3100000
1!
1g
1`!
0i
0@
1h
#3120000
0!
0g
0`!
#3140000
1!
1g
1`!
1i
1@
0h
0p
0+"
0)"
0(!
1("
0*"
0,
1*
0-
0+
0l
0q
0n
1s
1k
1o
1m
0r
0s
0m
1r
0o
1t
0t
#3160000
0!
0g
0`!
#3180000
1!
1g
1`!
0i
0@
1h
#3200000
0!
0g
0`!
#3220000
1!
1g
1`!
1i
1@
0h
1+"
1(!
1-
1l
0k
1m
#3240000
0!
0g
0`!
#3260000
1!
1g
1`!
0i
0@
1h
#3280000
0!
0g
0`!
#3300000
1!
1g
1`!
1i
1@
0h
0+"
0(!
1*"
1,
0-
0l
1n
1k
0m
0n
1m
1o
0o
#3320000
0!
0g
0`!
#3340000
1!
1g
1`!
0i
0@
1h
#3360000
0!
0g
0`!
#3380000
1!
1g
1`!
1i
1@
0h
1+"
1(!
1-
1l
0k
1n
0m
1o
#3400000
0!
0g
0`!
#3420000
1!
1g
1`!
0i
0@
1h
#3440000
0!
0g
0`!
#3460000
1!
1g
1`!
1i
1@
0h
1p
0+"
1)"
0(!
0*"
0,
0-
1+
0l
1q
0n
1k
0o
1m
1s
0q
0m
0r
1o
0s
1t
1r
0t
#3480000
0!
0g
0`!
#3500000
1!
1g
1`!
0i
0@
1h
#3520000
0!
0g
0`!
#3540000
1!
1g
1`!
1i
1@
0h
1+"
1(!
1-
1l
0k
1m
#3560000
0!
0g
0`!
#3580000
1!
1g
1`!
0i
0@
1h
#3600000
0!
0g
0`!
#3620000
1!
1g
1`!
1i
1@
0h
0+"
0(!
1*"
1,
0-
0l
1n
1k
0m
0n
1q
1m
0o
0q
1s
1o
0r
0s
1r
1t
0t
#3640000
0!
0g
0`!
#3660000
1!
1g
1`!
0i
0@
1h
#3680000
0!
0g
0`!
#3700000
1!
1g
1`!
1i
1@
0h
1+"
1(!
1-
1l
1)!
0k
1n
0m
1q
0o
1s
0r
1t
#3720000
0!
0g
0`!
#3740000
1!
1g
1`!
0i
0@
1h
#3760000
0!
0g
0`!
#3780000
1!
1g
1`!
1i
1@
0h
1'"
0p
0+"
1f!
0)"
0(!
0("
0*"
0,
0*
0-
0+
1)
0l
0q
0)!
1u
0n
0s
1k
1o
1T!
0t
1m
1r
1x
0u
0m
0r
0v
0o
1t
0x
1%!
1v
0%!
#3800000
0!
0g
0`!
#3820000
1!
1g
1`!
0i
0@
1h
#3840000
0!
0g
0`!
#3860000
1!
1g
1`!
1i
1@
0h
1+"
1(!
1-
1l
0k
1m
#3880000
0!
0g
0`!
#3900000
1!
1g
1`!
0i
0@
1h
#3920000
0!
0g
0`!
#3940000
1!
1g
1`!
1i
1@
0h
0+"
0(!
1*"
1,
0-
0l
1n
1k
0m
0n
1m
1o
0o
#3960000
0!
0g
0`!
#3980000
1!
1g
1`!
0i
0@
1h
#4000000
0!
0g
0`!
#4020000
1!
1g
1`!
1i
1@
0h
1+"
1(!
1-
1l
0k
1n
0m
1o
#4040000
0!
0g
0`!
#4060000
1!
1g
1`!
0i
0@
1h
#4080000
0!
0g
0`!
#4100000
1!
1g
1`!
1i
1@
0h
1p
0+"
1)"
0(!
0*"
0,
0-
1+
0l
1q
0n
1k
0o
1m
0q
0m
1r
1o
0r
#4120000
0!
0g
0`!
#4140000
1!
1g
1`!
0i
0@
1h
#4160000
0!
0g
0`!
#4180000
1!
1g
1`!
1i
1@
0h
1+"
1(!
1-
1l
0k
1m
#4200000
0!
0g
0`!
#4220000
1!
1g
1`!
0i
0@
1h
#4240000
0!
0g
0`!
#4260000
1!
1g
1`!
1i
1@
0h
0+"
0(!
1*"
1,
0-
0l
1n
1k
0m
0n
1q
1m
0o
0q
1o
1r
0r
#4280000
0!
0g
0`!
#4300000
1!
1g
1`!
0i
0@
1h
#4320000
0!
0g
0`!
#4340000
1!
1g
1`!
1i
1@
0h
1+"
1(!
1-
1l
0k
1n
0m
1q
0o
1r
#4360000
0!
0g
0`!
#4380000
1!
1g
1`!
0i
0@
1h
#4400000
0!
0g
0`!
#4420000
1!
1g
1`!
1i
1@
0h
0p
0+"
0)"
0(!
1("
0*"
0,
1*
0-
0+
0l
0q
0n
1s
1k
1o
1m
0r
0s
1u
0m
1r
0o
0t
0u
1x
1t
0v
0x
1v
1%!
0%!
#4440000
0!
0g
0`!
#4460000
1!
1g
1`!
0i
0@
1h
#4480000
0!
0g
0`!
#4500000
1!
1g
1`!
1i
1@
0h
1+"
1(!
1-
1l
0k
1m
#4520000
0!
0g
0`!
#4540000
1!
1g
1`!
0i
0@
1h
#4560000
0!
0g
0`!
#4580000
1!
1g
1`!
1i
1@
0h
0+"
0(!
1*"
1,
0-
0l
1n
1k
0m
0n
1m
1o
0o
#4600000
0!
0g
0`!
#4620000
1!
1g
1`!
0i
0@
1h
#4640000
0!
0g
0`!
#4660000
1!
1g
1`!
1i
1@
0h
1+"
1(!
1-
1l
0k
1n
0m
1o
#4680000
0!
0g
0`!
#4700000
1!
1g
1`!
0i
0@
1h
#4720000
0!
0g
0`!
#4740000
1!
1g
1`!
1i
1@
0h
1p
0+"
1)"
0(!
0*"
0,
0-
1+
0l
1q
0n
1k
0o
1m
1s
0q
0m
0r
1o
1u
0s
0t
1r
1x
0u
0v
1t
0x
1%!
1v
0%!
#4760000
0!
0g
0`!
#4780000
1!
1g
1`!
0i
0@
1h
#4800000
0!
0g
0`!
#4820000
1!
1g
1`!
1i
1@
0h
1+"
1(!
1-
1l
0k
1m
#4840000
0!
0g
0`!
#4860000
1!
1g
1`!
0i
0@
1h
#4880000
0!
0g
0`!
#4900000
1!
1g
1`!
1i
1@
0h
0+"
0(!
1*"
1,
0-
0l
1n
1k
0m
0n
1q
1m
0o
0q
1s
1o
0r
0s
1u
1r
0t
0u
1x
1t
0v
0x
1v
1%!
0%!
#4920000
0!
0g
0`!
#4940000
1!
1g
1`!
0i
0@
1h
#4960000
0!
0g
0`!
#4980000
1!
1g
1`!
1i
1@
0h
1+"
1(!
1-
1l
0k
1n
0m
1q
0o
1s
0r
1u
0t
1x
0v
1%!
#5000000
0!
0g
0`!
#5020000
1!
1g
1`!
0i
0@
1h
#5040000
0!
0g
0`!
#5060000
1!
1g
1`!
1i
1@
0h
1%"
0w
0'"
0p
0+"
0f!
0&"
0)"
0(!
1&!
0("
0*"
0,
0*
1'
0-
0+
0(
0)
0l
0q
0u
0x
1y
0n
0s
1k
1o
0T!
1t
1v
1W!
0%!
1m
1r
0U!
0y
0m
0r
0v
1%!
1z
0o
0t
0z
#5080000
0!
0g
0`!
#5100000
1!
1g
1`!
0i
0@
1h
#5120000
0!
0g
0`!
#5140000
1!
1g
1`!
1i
1@
0h
1+"
1(!
1-
1l
0k
1m
#5160000
0!
0g
0`!
#5180000
1!
1g
1`!
0i
0@
1h
#5200000
0!
0g
0`!
#5220000
1!
1g
1`!
1i
1@
0h
0+"
0(!
1*"
1,
0-
0l
1n
1k
0m
0n
1m
1o
0o
#5240000
0!
0g
0`!
#5260000
1!
1g
1`!
0i
0@
1h
#5280000
0!
0g
0`!
#5300000
1!
1g
1`!
1i
1@
0h
1+"
1(!
1-
1l
0k
1n
0m
1o
#5320000
0!
0g
0`!
#5340000
1!
1g
1`!
0i
0@
1h
#5360000
0!
0g
0`!
#5380000
1!
1g
1`!
1i
1@
0h
1p
0+"
1)"
0(!
0*"
0,
0-
1+
0l
1q
0n
1k
0o
1m
0q
0m
1r
1o
0r
#5400000
0!
0g
0`!
#5420000
1!
1g
1`!
0i
0@
1h
#5440000
0!
0g
0`!
#5460000
1!
1g
1`!
1i
1@
0h
1+"
1(!
1-
1l
0k
1m
#5480000
0!
0g
0`!
#5500000
1!
1g
1`!
0i
0@
1h
#5520000
0!
0g
0`!
#5540000
1!
1g
1`!
1i
1@
0h
0+"
0(!
1*"
1,
0-
0l
1n
1k
0m
0n
1q
1m
0o
0q
1o
1r
0r
#5560000
0!
0g
0`!
#5580000
1!
1g
1`!
0i
0@
1h
#5600000
0!
0g
0`!
#5620000
1!
1g
1`!
1i
1@
0h
1+"
1(!
1-
1l
0k
1n
0m
1q
0o
1r
#5640000
0!
0g
0`!
#5660000
1!
1g
1`!
0i
0@
1h
#5680000
0!
0g
0`!
